gcd/top_gcd.vcd
$date
	Tue Dec 12 00:54:06 2023
$end
$version
	Icarus Verilog
$end
$timescale
	1ps
$end
$scope module top_gcd_tb $end
$var wire 8 ! out [7:0] $end
$var wire 1 " done $end
$var reg 1 # clk $end
$var reg 8 $ data_in1 [7:0] $end
$var reg 8 % data_in2 [7:0] $end
$var reg 1 & go $end
$var reg 1 ' rst $end
$scope module gcd1 $end
$var wire 1 # clk $end
$var wire 8 ( data_in1 [7:0] $end
$var wire 8 ) data_in2 [7:0] $end
$var wire 1 & go $end
$var wire 1 ' rst $end
$var wire 1 * output_en $end
$var wire 8 + out [7:0] $end
$var wire 1 " done $end
$var wire 1 , b_sel $end
$var wire 1 - b_ld $end
$var wire 1 . a_sel $end
$var wire 1 / a_lt_b $end
$var wire 1 0 a_ld $end
$var wire 1 1 a_gt_b $end
$var wire 1 2 a_eq_b $end
$scope module u1 $end
$var wire 1 # clk $end
$var wire 8 3 data_in1 [7:0] $end
$var wire 8 4 data_in2 [7:0] $end
$var wire 1 ' rst $end
$var wire 8 5 tb_out [7:0] $end
$var wire 8 6 tb_in [7:0] $end
$var wire 8 7 ta_out [7:0] $end
$var wire 8 8 ta_in [7:0] $end
$var wire 8 9 sub_b [7:0] $end
$var wire 8 : sub_a [7:0] $end
$var wire 1 * output_en $end
$var wire 8 ; data_out [7:0] $end
$var wire 1 , b_sel $end
$var wire 1 - b_ld $end
$var wire 1 . a_sel $end
$var wire 1 / a_lt_b $end
$var wire 1 0 a_ld $end
$var wire 1 1 a_gt_b $end
$var wire 1 2 a_eq_b $end
$scope module amux $end
$var wire 8 < a [7:0] $end
$var wire 1 . sel $end
$var wire 8 = out [7:0] $end
$var wire 8 > b [7:0] $end
$upscope $end
$scope module bmux $end
$var wire 8 ? a [7:0] $end
$var wire 1 , sel $end
$var wire 8 @ out [7:0] $end
$var wire 8 A b [7:0] $end
$upscope $end
$scope module comp1 $end
$var wire 1 / lt $end
$var wire 1 1 gt $end
$var wire 1 2 eq $end
$var wire 8 B b [7:0] $end
$var wire 8 C a [7:0] $end
$upscope $end
$scope module pipo_a $end
$var wire 1 # clk $end
$var wire 8 D in [7:0] $end
$var wire 1 ' rst $end
$var wire 1 0 ld $end
$var reg 8 E out [7:0] $end
$upscope $end
$scope module pipo_b $end
$var wire 1 # clk $end
$var wire 8 F in [7:0] $end
$var wire 1 ' rst $end
$var wire 1 - ld $end
$var reg 8 G out [7:0] $end
$upscope $end
$scope module pipo_out $end
$var wire 1 # clk $end
$var wire 8 H in [7:0] $end
$var wire 1 ' rst $end
$var wire 1 * ld $end
$var reg 8 I out [7:0] $end
$upscope $end
$scope module subs_a $end
$var wire 8 J a [7:0] $end
$var wire 8 K b [7:0] $end
$var wire 8 L out [7:0] $end
$upscope $end
$scope module subs_b $end
$var wire 8 M a [7:0] $end
$var wire 8 N b [7:0] $end
$var wire 8 O out [7:0] $end
$upscope $end
$upscope $end
$scope module u2 $end
$var wire 1 2 a_eq_b $end
$var wire 1 1 a_gt_b $end
$var wire 1 / a_lt_b $end
$var wire 1 # clk $end
$var wire 1 & go $end
$var wire 1 ' rst $end
$var parameter 32 P s0 $end
$var parameter 32 Q s1 $end
$var parameter 32 R s2 $end
$var parameter 32 S s3 $end
$var parameter 32 T s4 $end
$var parameter 32 U s5 $end
$var parameter 32 V s6 $end
$var parameter 32 W s7 $end
$var parameter 32 X s8 $end
$var reg 1 0 a_ld $end
$var reg 1 . a_sel $end
$var reg 1 - b_ld $end
$var reg 1 , b_sel $end
$var reg 1 " done $end
$var reg 1 * output_en $end
$var reg 5 Y state [4:0] $end
$upscope $end
$upscope $end
$upscope $end
$enddefinitions $end
$comment Show the parameter values. $end
$dumpall
b1000 X
b111 W
b110 V
b101 U
b100 T
b11 S
b10 R
b1 Q
b0 P
$end
#0
$dumpvars
bx Y
bx O
bx N
bx M
bx L
bx K
bx J
bx I
bx H
bx G
bx F
bx E
bx D
bx C
bx B
bx A
bx @
b10000 ?
bx >
bx =
b101010 <
bx ;
bx :
bx 9
bx 8
bx 7
bx 6
bx 5
b10000 4
b101010 3
x2
x1
x0
x/
x.
x-
x,
bx +
x*
b10000 )
b101010 (
x'
x&
b10000 %
b101010 $
0#
x"
bx !
$end
#10000
b0 8
b0 =
b0 D
b0 6
b0 @
b0 F
0*
0"
0-
00
0,
0.
b0 :
b0 >
b0 L
b0 9
b0 A
b0 O
0/
12
01
b0 7
b0 C
b0 E
b0 H
b0 J
b0 N
b0 5
b0 B
b0 G
b0 K
b0 M
b0 !
b0 +
b0 ;
b0 I
b0 Y
1'
#30000
0'
#55000
1#
#75000
1&
#110000
0#
#165000
b10000 6
b10000 @
b10000 F
b101010 8
b101010 =
b101010 D
1-
10
1,
1.
b1 Y
1#
#185000
0&
#220000
0#
#275000
b11100110 6
b11100110 @
b11100110 F
b11010 8
b11010 =
b11010 D
0-
00
0,
0.
b10 Y
b10000 5
b10000 B
b10000 G
b10000 K
b10000 M
b11010 :
b11010 >
b11010 L
b11100110 9
b11100110 A
b11100110 O
02
11
b101010 7
b101010 C
b101010 E
b101010 H
b101010 J
b101010 N
1#
#330000
0#
#385000
b11 Y
1#
#440000
0#
#495000
b10000 6
b10000 @
b10000 F
10
1,
b101 Y
1#
#550000
0#
#605000
b11110110 6
b11110110 @
b11110110 F
b1010 8
b1010 =
b1010 D
00
0,
b1010 :
b1010 >
b1010 L
b11110110 9
b11110110 A
b11110110 O
b11010 7
b11010 C
b11010 E
b11010 H
b11010 J
b11010 N
b110 Y
1#
#660000
0#
#715000
b11 Y
1#
#770000
0#
#825000
b10000 6
b10000 @
b10000 F
10
1,
b101 Y
1#
#880000
0#
#935000
b110 6
b110 @
b110 F
00
0,
b11111010 8
b11111010 =
b11111010 D
b110 Y
b11111010 :
b11111010 >
b11111010 L
b110 9
b110 A
b110 O
1/
01
b1010 7
b1010 C
b1010 E
b1010 H
b1010 J
b1010 N
1#
#990000
0#
#1045000
b11 Y
1#
#1100000
0#
#1155000
b101010 8
b101010 =
b101010 D
1-
1.
b100 Y
1#
#1210000
0#
#1265000
b100 8
b100 =
b100 D
b11111100 6
b11111100 @
b11111100 F
0-
0.
b100 :
b100 >
b100 L
b11111100 9
b11111100 A
b11111100 O
0/
11
b110 5
b110 B
b110 G
b110 K
b110 M
b110 Y
1#
#1320000
0#
#1375000
b11 Y
1#
#1430000
0#
#1485000
b10000 6
b10000 @
b10000 F
10
1,
b101 Y
1#
#1540000
0#
#1595000
b10 6
b10 @
b10 F
00
0,
b11111110 8
b11111110 =
b11111110 D
b110 Y
b11111110 :
b11111110 >
b11111110 L
b10 9
b10 A
b10 O
1/
01
b100 7
b100 C
b100 E
b100 H
b100 J
b100 N
1#
#1650000
0#
#1705000
b11 Y
1#
#1760000
0#
#1815000
b101010 8
b101010 =
b101010 D
1-
1.
b100 Y
1#
#1870000
0#
#1925000
b10 8
b10 =
b10 D
b11111110 6
b11111110 @
b11111110 F
0-
0.
b10 :
b10 >
b10 L
b11111110 9
b11111110 A
b11111110 O
0/
11
b10 5
b10 B
b10 G
b10 K
b10 M
b110 Y
1#
#1980000
0#
#2035000
b11 Y
1#
#2090000
0#
#2145000
b10000 6
b10000 @
b10000 F
10
1,
b101 Y
1#
#2200000
0#
#2255000
b0 6
b0 @
b0 F
00
0,
b0 8
b0 =
b0 D
b110 Y
b0 :
b0 >
b0 L
b0 9
b0 A
b0 O
12
01
b10 7
b10 C
b10 E
b10 H
b10 J
b10 N
1#
#2310000
0#
#2365000
b11 Y
1#
#2420000
0#
#2475000
1*
1"
b111 Y
1#
#2530000
0#
#2585000
b10 !
b10 +
b10 ;
b10 I
b1000 Y
1#
